[
  {
    "nombre": "Logica Computacional",
    "nivel":  "0",
    "uc":     "3",
    "horas":  "6",
    "secciones": [
      {
        "seccion":  "1",
        "profesor": "Zaide Accary",
        "dias": [
          {
            "dia":      "1",
            "aula":     "A-11",
            "edificio": "Informatica",
            "hora_i":   "7",
            "hora_f":   "10"
          },
          {
            "dia":      "4",
            "aula":     "A12",
            "edificio": "informatica",
            "hora_i":   "9",
            "hora_f":   "12"
          }
        ]
      },
      {
        "seccion":  "2",
        "profesor": "Zaide Accary",
        "dias": [
          {
            "dia":      "1",
            "aula":     "A-03",
            "edificio": "informatica",
            "hora_i":   "9",
            "hora_f":   "12"
          },
          {
            "dia":      "5",
            "aula":     "A-15",
            "edificio": "informatica",
            "hora_i":   "7",
            "hora_f":   "10"
          }
        ]
      }
    ]
  },
  {
    "nombre": "Fundamentos de la Informatica",
    "nivel":  "0",
    "uc":     "4",
    "horas":  "6",
    "secciones" : [
      {
        "seccion":  "1",
        "profesor": "Muñoz Noycar",
        "dias": [
          {
            "dia":      "1",
            "aula":     "A-12",
            "edificio": "informatica",
            "hora_i":   "9",
            "hora_f":   "12"
          },
          {
            "dia":      "5",
            "aula":     "A-05",
            "edificio": "informatica",
            "hora_i":   "9",
            "hora_f":   "12"
          }
        ]
      },
      {
        "seccion":  "2",
        "profesor": "Yetzi Villarroel",
        "dias": [
          {
            "dia":      "1",
            "aula":     "A-03",
            "edificio": "informatica",
            "hora_i":   "7",
            "hora_f":   "10"
          },
          {
            "dia":      "3",
            "aula":     "A-01",
            "edificio": "informatica",
            "hora_i":   "9",
            "hora_f":   "12"
          }
        ]
      }
    ]
  },
  {
    "nombre": "Matematica 1",
    "nivel":  "0",
    "uc":     "4",
    "horas":  "6",
    "secciones" : [
      {
        "seccion":  "1",
        "profesor": "Mora Omero",
        "dias": [
          {
            "dia":      "3",
            "aula":     "A-14",
            "edificio": "informatica",
            "hora_i":   "7",
            "hora_f":   "10"
          },
          {
            "dia":      "2",
            "aula":     "A-01",
            "edificio": "informatica",
            "hora_i":   "9",
            "hora_f":   "12"
          }
        ]
      },
      {
        "seccion":  "2",
        "profesor": "Bianco Sara",
        "dias": [
          {
            "dia":      "2",
            "aula":     "A-02",
            "edificio": "informatica",
            "hora_i":   "7",
            "hora_f":   "10"
          },
          {
            "dia":      "3",
            "aula":     "A-09",
            "edificio": "informatica",
            "hora_i":   "7",
            "hora_f":   "10"
          }
        ]
      }
    ]
  },
  {
    "nombre": "Dibujo Tecnico",
    "nivel":  "1",
    "uc":     "3",
    "horas":  "5",
    "secciones" : [
      {
        "seccion":  "1",
        "profesor": "Ingrid Lopez",
        "dias": [
          {
            "dia":      "1",
            "aula":     "Dibujo Tecnico",
            "edificio": "Villa Asia",
            "hora_i":   "7",
            "hora_f":   "12"
          }
        ]
      },
      {
        "seccion":  "2",
        "profesor": "Ingrid Lopez",
        "dias": [
          {
            "dia":      "3",
            "aula":     "Dibujo Tecnico",
            "edificio": "Villa Asia",
            "hora_i":   "8",
            "hora_f":   "13"
          }
        ]
      }
    ]
  },
  {
    "nombre": "Matematica 2",
    "nivel":  "1",
    "uc":     "4",
    "horas":  "6",
    "secciones" : [
      {
        "seccion":  "1",
        "profesor": "Ana Berrios",
        "dias": [
          {
            "dia":      "2",
            "aula":     "A-10",
            "edificio": "informatica",
            "hora_i":   "9",
            "hora_f":   "12"
          },
          {
            "dia":      "4",
            "aula":     "A-11",
            "edificio": "informatica",
            "hora_i":   "9",
            "hora_f":   "12"
          }
        ]
      },
      {
        "seccion":  "2",
        "profesor": "Ana Berrios",
        "dias": [
          {
            "dia":      "3",
            "aula":     "A-04",
            "edificio": "informatica",
            "hora_i":   "9",
            "hora_f":   "12"
          },
          {
            "dia":      "5",
            "aula":     "A-09",
            "edificio": "informatica",
            "hora_i":   "7",
            "hora_f":   "10"
          }
        ]
      }
    ]
  },
  {
    "nombre": "Tecnicas de Programacion I",
    "nivel":  "1",
    "uc":     "4",
    "horas":  "6",
    "secciones" : [
      {
        "seccion":  "1",
        "profesor": "Jose Francisco Escalante",
        "dias": [
          {
            "dia":      "2",
            "aula":     "A-02",
            "edificio": "informatica",
            "hora_i":   "16",
            "hora_f":   "19"
          },
          {
            "dia":      "2",
            "aula":     "A-01",
            "edificio": "informatica",
            "hora_i":   "18",
            "hora_f":   "21"
          }
        ]
      },
      {
        "seccion":  "2",
        "profesor": "Joyce Aragon",
        "dias": [
          {
            "dia":      "1",
            "aula":     "A-02",
            "edificio": "informatica",
            "hora_i":   "7",
            "hora_f":   "11"
          },
          {
            "dia":      "3",
            "aula":     "A-13",
            "edificio": "informatica",
            "hora_i":   "7",
            "hora_f":   "9"
          }
        ]
      }
    ]
  },
  {
    "nombre": "Matematicas Discretas",
    "nivel":  "2",
    "uc":     "4",
    "horas":  "6",
    "secciones" : [
      {
        "seccion":  "1",
        "profesor": "Domingo Quijada",
        "dias": [
          {
            "dia":      "1",
            "aula":     "A-10",
            "edificio": "informatica",
            "hora_i":   "7",
            "hora_f":   "10"
          },
          {
            "dia":      "3",
            "aula":     "A-11",
            "edificio": "informatica",
            "hora_i":   "7",
            "hora_f":   "10"
          }
        ]
      },
      {
        "seccion":  "2",
        "profesor": "Por Asignar",
        "dias": [
          {
            "dia":      "1",
            "aula":     "A-11",
            "edificio": "informatica",
            "hora_i":   "9",
            "hora_f":   "12"
          },
          {
            "dia":      "3",
            "aula":     "A-06",
            "edificio": "informatica",
            "hora_i":   "7",
            "hora_f":   "10"
          }
        ]
      }
    ]
  },
  {
    "nombre": "Matematica 3",
    "nivel":  "2",
    "uc":     "4",
    "horas":  "5",
    "secciones" : [
      {
        "seccion":  "1",
        "profesor": "Belkis Mendoza",
        "dias": [
          {
            "dia":      "1",
            "aula":     "A-02",
            "edificio": "informatica",
            "hora_i":   "10",
            "hora_f":   "12"
          },
          {
            "dia":      "2",
            "aula":     "A-11",
            "edificio": "informatica",
            "hora_i":   "7",
            "hora_f":   "10"
          }
        ]
      },
      {
        "seccion":  "2",
        "profesor": "Por Asignar",
        "dias": [
          {
            "dia":      "3",
            "aula":     "A-06",
            "edificio": "informatica",
            "hora_i":   "7",
            "hora_f":   "10"
          },
          {
            "dia":      "5",
            "aula":     "A-06",
            "edificio": "informatica",
            "hora_i":   "8",
            "hora_f":   "10"
          }
        ]
      }
    ]
  },
  {
    "nombre": "Tecnicas de Programacion 2",
    "nivel":  "2",
    "uc":     "4",
    "horas":  "7",
    "secciones" : [
      {
        "seccion":  "2",
        "profesor": "Oscar Salazar",
        "dias": [
          {
            "dia":      "2",
            "aula":     "A-09",
            "edificio": "informatica",
            "hora_i":   "13",
            "hora_f":   "17"
          },
          {
            "dia":      "3",
            "aula":     "A-11",
            "edificio": "informatica",
            "hora_i":   "10",
            "hora_f":   "12"
          }
        ]
      },
      {
        "seccion":  "3",
        "profesor": "Andres Lillo",
        "dias": [
          {
            "dia":      "2",
            "aula":     "A-02",
            "edificio": "informatica",
            "hora_i":   "9",
            "hora_f":   "12"
          },
          {
            "dia":      "5",
            "aula":     "A-12",
            "edificio": "informatica",
            "hora_i":   "7",
            "hora_f":   "10"
          }
        ]
      }
    ]
  },
  {
    "nombre": "Tecnicas de Programacion 3",
    "nivel":  "3",
    "uc":     "4",
    "horas":  "6",
    "secciones" : [
      {
        "seccion":  "1",
        "profesor": "Carlos Abaffy",
        "dias": [
          {
            "dia":      "1",
            "aula":     "A-10",
            "edificio": "informatica",
            "hora_i":   "18",
            "hora_f":   "21"
          },
          {
            "dia":      "3",
            "aula":     "A-13",
            "edificio": "informatica",
            "hora_i":   "18",
            "hora_f":   "21"
          }
        ]
      },
      {
        "seccion":  "2",
        "profesor": "Por Asignar",
        "dias": [
          {
            "dia":      "1",
            "aula":     "A-15",
            "edificio": "informatica",
            "hora_i":   "15",
            "hora_f":   "18"
          },
          {
            "dia":      "5",
            "aula":     "A-03",
            "edificio": "informatica",
            "hora_i":   "4",
            "hora_f":   "7"
          }
        ]
      }
    ]
  },
  {
    "nombre": "Estadistica 1",
    "nivel":  "3",
    "uc":     "4",
    "horas":  "6",
    "secciones" : [
      {
        "seccion":  "1",
        "profesor": "Carmen Marchan",
        "dias": [
          {
            "dia":      "1",
            "aula":     "A-04",
            "edificio": "informatica",
            "hora_i":   "7",
            "hora_f":   "10"
          },
          {
            "dia":      "3",
            "aula":     "A-14",
            "edificio": "informatica",
            "hora_i":   "14",
            "hora_f":   "17"
          }
        ]
      },
      {
        "seccion":  "2",
        "profesor": "Carmen Marchan",
        "dias": [
          {
            "dia":      "3",
            "aula":     "A-05",
            "edificio": "informatica",
            "hora_i":   "7",
            "hora_f":   "10"
          },
          {
            "dia":      "5",
            "aula":     "A-09",
            "edificio": "informatica",
            "hora_i":   "9",
            "hora_f":   "12"
          }
        ]
      }
    ]
  },
  {
    "nombre": "Matematica 4",
    "nivel":  "3",
    "uc":     "4",
    "horas":  "6",
    "secciones" : [
      {
        "seccion":  "1",
        "profesor": "Belkis Mendoza",
        "dias": [
          {
            "dia":      "1",
            "aula":     "A-12",
            "edificio": "informatica",
            "hora_i":   "15",
            "hora_f":   "18"
          },
          {
            "dia":      "4",
            "aula":     "A-05",
            "edificio": "informatica",
            "hora_i":   "15",
            "hora_f":   "18"
          }
        ]
      },
      {
        "seccion":  "2",
        "profesor": "Por Asignar",
        "dias": [
          {
            "dia":      "2",
            "aula":     "A-09",
            "edificio": "informatica",
            "hora_i":   "18",
            "hora_f":   "21"
          },
          {
            "dia":      "5",
            "aula":     "A-05",
            "edificio": "informatica",
            "hora_i":   "13",
            "hora_f":   "16"
          }
        ]
      }
    ]
  },
  {
    "nombre": "Algebra de Estructuras",
    "nivel":  "4",
    "uc":     "4",
    "horas":  "6",
    "secciones" : [
      {
        "seccion":  "1",
        "profesor": "Rogel Rojas",
        "dias": [
          {
            "dia":      "1",
            "aula":     "A-06",
            "edificio": "informatica",
            "hora_i":   "7",
            "hora_f":   "10"
          },
          {
            "dia":      "2",
            "aula":     "A-06",
            "edificio": "informatica",
            "hora_i":   "13",
            "hora_f":   "16"
          }
        ]
      },
      {
        "seccion":  "2",
        "profesor": "Por Asignar",
        "dias": [
          {
            "dia":      "1",
            "aula":     "A-13",
            "edificio": "informatica",
            "hora_i":   "9",
            "hora_f":   "12"
          },
          {
            "dia":      "4",
            "aula":     "A-05",
            "edificio": "informatica",
            "hora_i":   "16",
            "hora_f":   "19"
          }
        ]
      }
    ]
  },
  {
    "nombre": "Calculo Numerico",
    "nivel":  "4",
    "uc":     "4",
    "horas":  "6",
    "secciones" : [
      {
        "seccion":  "1",
        "profesor": "Sandra Castillo",
        "dias": [
          {
            "dia":      "1",
            "aula":     "A-04",
            "edificio": "informatica",
            "hora_i":   "9",
            "hora_f":   "12"
          },
          {
            "dia":      "4",
            "aula":     "A-11",
            "edificio": "informatica",
            "hora_i":   "15",
            "hora_f":   "18"
          }
        ]
      },
      {
        "seccion":  "2",
        "profesor": "Josue Fuentes",
        "dias": [
          {
            "dia":      "1",
            "aula":     "A-13",
            "edificio": "informatica",
            "hora_i":   "13",
            "hora_f":   "16"
          },
          {
            "dia":      "3",
            "aula":     "A-03",
            "edificio": "informatica",
            "hora_i":   "15",
            "hora_f":   "18"
          }
        ]
      }
    ]
  },
  {
    "nombre": "Arquitectura",
    "nivel":  "4",
    "uc":     "4",
    "horas":  "6",
    "secciones" : [
      {
        "seccion":  "1",
        "profesor": "Rodriguez Marcos",
        "dias": [
          {
            "dia":      "1",
            "aula":     "A-09",
            "edificio": "informatica",
            "hora_i":   "13",
            "hora_f":   "16"
          },
          {
            "dia":      "5",
            "aula":     "A-04",
            "edificio": "informatica",
            "hora_i":   "15",
            "hora_f":   "18"
          }
        ]
      },
      {
        "seccion":  "2",
        "profesor": "Saraullo Marcos",
        "dias": [
          {
            "dia":      "2",
            "aula":     "A-06",
            "edificio": "informatica",
            "hora_i":   "18",
            "hora_f":   "21"
          },
          {
            "dia":      "5",
            "aula":     "A-02",
            "edificio": "informatica",
            "hora_i":   "18",
            "hora_f":   "21"
          }
        ]
      }
    ]
  },
  {
    "nombre": "Investigacion de Operaciones",
    "nivel":  "5",
    "uc":     "4",
    "horas":  "6",
    "secciones" : [
      {
        "seccion":  "1",
        "profesor": "Liliana Reyes",
        "dias": [
          {
            "dia":      "1",
            "aula":     "A-01",
            "edificio": "informatica",
            "hora_i":   "13",
            "hora_f":   "16"
          },
          {
            "dia":      "3",
            "aula":     "A-09",
            "edificio": "informatica",
            "hora_i":   "16",
            "hora_f":   "18"
          }
        ]
      },
      {
        "seccion":  "2",
        "profesor": "Liliana Reyes",
        "dias": [
          {
            "dia":      "3",
            "aula":     "A-04",
            "edificio": "informatica",
            "hora_i":   "15",
            "hora_f":   "18"
          },
          {
            "dia":      "5",
            "aula":     "A-14",
            "edificio": "informatica",
            "hora_i":   "15",
            "hora_f":   "18"
          }
        ]
      }
    ]
  },
  {
    "nombre": "Informatica Industrial",
    "nivel":  "5",
    "uc":     "4",
    "horas":  "6",
    "secciones" : [
      {
        "seccion":  "1",
        "profesor": "Nelson Inojosa",
        "dias": [
          {
            "dia":      "2",
            "aula":     "A-04",
            "edificio": "informatica",
            "hora_i":   "13",
            "hora_f":   "16"
          },
          {
            "dia":      "5",
            "aula":     "A-13",
            "edificio": "informatica",
            "hora_i":   "15",
            "hora_f":   "18"
          }
        ]
      },
      {
        "seccion":  "2",
        "profesor": "Nelson Inojosa",
        "dias": [
          {
            "dia":      "2",
            "aula":     "A-06",
            "edificio": "informatica",
            "hora_i":   "14",
            "hora_f":   "17"
          },
          {
            "dia":      "4",
            "aula":     "A-15",
            "edificio": "informatica",
            "hora_i":   "16",
            "hora_f":   "19"
          }
        ]
      }
    ]
  },
  {
    "nombre": "Ingenieria de Software 1",
    "nivel":  "5",
    "uc":     "4",
    "horas":  "6",
    "secciones" : [
      {
        "seccion":  "1",
        "profesor": "Jesus Rondon",
        "dias": [
          {
            "dia":      "3",
            "aula":     "A-11",
            "edificio": "informatica",
            "hora_i":   "13",
            "hora_f":   "14"
          },
          {
            "dia":      "4",
            "aula":     "A-13",
            "edificio": "informatica",
            "hora_i":   "18",
            "hora_f":   "21"
          }
        ]
      },
      {
        "seccion":  "2",
        "profesor": "Jesus Rondon",
        "dias": [
          {
            "dia":      "2",
            "aula":     "A-14",
            "edificio": "informatica",
            "hora_i":   "15",
            "hora_f":   "18"
          },
          {
            "dia":      "5",
            "aula":     "A-06",
            "edificio": "informatica",
            "hora_i":   "18",
            "hora_f":   "21"
          }
        ]
      }
    ]
  }
]